Determining if the Q_WS_X11 exist failed with the following output:
Change Dir: /Users/juan/juanc/develop/misc_projects/examples/qtvtk/QtBorderWidget/CMakeFiles/CMakeTmp

Run Build Command:/usr/bin/make "cmTryCompileExec/fast"
/usr/bin/make -f CMakeFiles/cmTryCompileExec.dir/build.make CMakeFiles/cmTryCompileExec.dir/build
"/Applications/CMake 2.8-6.app/Contents/bin/cmake" -E cmake_progress_report /Users/juan/juanc/develop/misc_projects/examples/qtvtk/QtBorderWidget/CMakeFiles/CMakeTmp/CMakeFiles 1
Building CXX object CMakeFiles/cmTryCompileExec.dir/CheckSymbolExists.cxx.o
/usr/bin/c++    -I/usr/local/Cellar/qt/4.8.3/include -F/usr/local/Cellar/qt/4.8.3/lib    -o CMakeFiles/cmTryCompileExec.dir/CheckSymbolExists.cxx.o -c /Users/juan/juanc/develop/misc_projects/examples/qtvtk/QtBorderWidget/CMakeFiles/CMakeTmp/CheckSymbolExists.cxx
/Users/juan/juanc/develop/misc_projects/examples/qtvtk/QtBorderWidget/CMakeFiles/CMakeTmp/CheckSymbolExists.cxx:8:25: error: use of undeclared identifier 'Q_WS_X11'
  cmakeRequireSymbol(0,&Q_WS_X11);
                        ^
1 error generated.
make[1]: *** [CMakeFiles/cmTryCompileExec.dir/CheckSymbolExists.cxx.o] Error 1
make: *** [cmTryCompileExec/fast] Error 2

File /Users/juan/juanc/develop/misc_projects/examples/qtvtk/QtBorderWidget/CMakeFiles/CMakeTmp/CheckSymbolExists.cxx:
/* */
#include <QtCore/qglobal.h>

void cmakeRequireSymbol(int dummy,...){(void)dummy;}
int main()
{
#ifndef Q_WS_X11
  cmakeRequireSymbol(0,&Q_WS_X11);
#endif
  return 0;
}

Determining if the Q_WS_WIN exist failed with the following output:
Change Dir: /Users/juan/juanc/develop/misc_projects/examples/qtvtk/QtBorderWidget/CMakeFiles/CMakeTmp

Run Build Command:/usr/bin/make "cmTryCompileExec/fast"
/usr/bin/make -f CMakeFiles/cmTryCompileExec.dir/build.make CMakeFiles/cmTryCompileExec.dir/build
"/Applications/CMake 2.8-6.app/Contents/bin/cmake" -E cmake_progress_report /Users/juan/juanc/develop/misc_projects/examples/qtvtk/QtBorderWidget/CMakeFiles/CMakeTmp/CMakeFiles 1
Building CXX object CMakeFiles/cmTryCompileExec.dir/CheckSymbolExists.cxx.o
/usr/bin/c++    -I/usr/local/Cellar/qt/4.8.3/include -F/usr/local/Cellar/qt/4.8.3/lib    -o CMakeFiles/cmTryCompileExec.dir/CheckSymbolExists.cxx.o -c /Users/juan/juanc/develop/misc_projects/examples/qtvtk/QtBorderWidget/CMakeFiles/CMakeTmp/CheckSymbolExists.cxx
/Users/juan/juanc/develop/misc_projects/examples/qtvtk/QtBorderWidget/CMakeFiles/CMakeTmp/CheckSymbolExists.cxx:8:25: error: use of undeclared identifier 'Q_WS_WIN'
  cmakeRequireSymbol(0,&Q_WS_WIN);
                        ^
1 error generated.
make[1]: *** [CMakeFiles/cmTryCompileExec.dir/CheckSymbolExists.cxx.o] Error 1
make: *** [cmTryCompileExec/fast] Error 2

File /Users/juan/juanc/develop/misc_projects/examples/qtvtk/QtBorderWidget/CMakeFiles/CMakeTmp/CheckSymbolExists.cxx:
/* */
#include <QtCore/qglobal.h>

void cmakeRequireSymbol(int dummy,...){(void)dummy;}
int main()
{
#ifndef Q_WS_WIN
  cmakeRequireSymbol(0,&Q_WS_WIN);
#endif
  return 0;
}

Determining if the Q_WS_QWS exist failed with the following output:
Change Dir: /Users/juan/juanc/develop/misc_projects/examples/qtvtk/QtBorderWidget/CMakeFiles/CMakeTmp

Run Build Command:/usr/bin/make "cmTryCompileExec/fast"
/usr/bin/make -f CMakeFiles/cmTryCompileExec.dir/build.make CMakeFiles/cmTryCompileExec.dir/build
"/Applications/CMake 2.8-6.app/Contents/bin/cmake" -E cmake_progress_report /Users/juan/juanc/develop/misc_projects/examples/qtvtk/QtBorderWidget/CMakeFiles/CMakeTmp/CMakeFiles 1
Building CXX object CMakeFiles/cmTryCompileExec.dir/CheckSymbolExists.cxx.o
/usr/bin/c++    -I/usr/local/Cellar/qt/4.8.3/include -F/usr/local/Cellar/qt/4.8.3/lib    -o CMakeFiles/cmTryCompileExec.dir/CheckSymbolExists.cxx.o -c /Users/juan/juanc/develop/misc_projects/examples/qtvtk/QtBorderWidget/CMakeFiles/CMakeTmp/CheckSymbolExists.cxx
/Users/juan/juanc/develop/misc_projects/examples/qtvtk/QtBorderWidget/CMakeFiles/CMakeTmp/CheckSymbolExists.cxx:8:25: error: use of undeclared identifier 'Q_WS_QWS'
  cmakeRequireSymbol(0,&Q_WS_QWS);
                        ^
1 error generated.
make[1]: *** [CMakeFiles/cmTryCompileExec.dir/CheckSymbolExists.cxx.o] Error 1
make: *** [cmTryCompileExec/fast] Error 2

File /Users/juan/juanc/develop/misc_projects/examples/qtvtk/QtBorderWidget/CMakeFiles/CMakeTmp/CheckSymbolExists.cxx:
/* */
#include <QtCore/qglobal.h>

void cmakeRequireSymbol(int dummy,...){(void)dummy;}
int main()
{
#ifndef Q_WS_QWS
  cmakeRequireSymbol(0,&Q_WS_QWS);
#endif
  return 0;
}

