preprocessing...
detecting main object...
detecting background...
detecting center hole...
ind_hole: 9
detecting secondary holes...
detecting circles...
nb_circ: 4
ind: 4 dist: 108.95
ind: 6 dist: 20.26
ind: 8 dist: 97.31
ind: 11 dist: 18.49
computing rotation...
computing orientation...
computing new axes...
detecting angle with vectors...
angle_v: 84.26
detecting toquito...
ind_toq: 10
porcentaje de toquito: 0.90
toquito found! starting toquito processing...
ind_toq_part_1: 7 hay_parte_1: 0 toq_area_1: 108
ind_toq_part_2: 9 hay_parte_2: 1 toq_area_2: 300
angulo: 1.625
ind_toq_part: 7 area:   300
OPCION 1: toq_area_left:     0 toq_area_right:   176 ratio: 0.00
OPCION 2: toq_area:   476 area_total:   574 ratio: 1.21
OPCION 3: area_total:   574 area_left:     0 ratio: 0.00
OPCION 4: area_total:   574 area_right:   176 ratio: 0.31
OPCION 5: area_total_teo: 939.0 area_right:   176 ratio: 0.19
OPCION 6: area_total_teo: 939.0 area_big:   176 ratio: 0.19 rel_final: 0.12
ind: 2 beta: -2
--------------------------------
computed parameters
alpha: 174.3 beta:  -2.0
circle_i: (712.43,712.43)
